…
- `rsr_summary`: Summary Resettlement Statistics Report \[Tab 1\].
- `rsr_submissions`: Resettlement submissions and decisions \[Tab 2\].
- `rsr_departures`: Resettlement departures \[Tab 3\].
- `rsr_demographics`: Demographics \[Tab 4\].
- `rsr_states`: Resettlement processing with States \[Tab 5\].
- `rsr_internal`: Internal resettlement processing \[Tab 6\].
- `rsr_times`: Full Resettlement processing data \[Tab 7\].

### Example

``` r
rsd_decisions("ARE", 2023, 6)
```

    ## # A tibble: 495 × 9
    ##    origin authority stage process procedure decision sex   age       n
    ##    <chr>  <chr>     <chr> <chr>   <chr>     <chr>    <chr> <chr> <dbl>
    ##  1 CAR    U         AR    RSD     REGLR     NEG      F     0-17      0
    ##  2 CAR    U         AR    RSD     REGLR     NEG      F     18-59     0
    ##  3 CAR    U         AR    RSD     REGLR     NEG      F     60+       0
    ##  4 CAR    U         AR    RSD     REGLR     NEG      F     UKN       0
    ##  5 CAR    U         AR    RSD     REGLR     NEG      M     0-17      0
    ##  6 CAR    U         AR    RSD     REGLR     NEG      M     18-59     3
    ##  7 CAR    U         AR    RSD     REGLR     NEG      M     60+       0
    ##  8 CAR    U         AR    RSD     REGLR     NEG      M     UKN       0
    ##  9 CAR    U         AR    RSD     REGLR     NEG      UKN   UKN       0
    ## 10 CAR    U         FI    RSD     REGLR     POS      F     0-17      0
    ## # ℹ 485 more rows
